Build nesting or hierarchical structures • nestr
…
The dplyr::mutate function modifies, creates or deletes columns but doesn’t alter the number of rows. The nestr::amplify function can create new columns which generally increase (or amplify) the size of the row dimension. The columns that were amplified as a result of the created column will be duplicated. If you are familiar with gene replication process then you can recall these functions in those terms. An amplified gene is just a duplication of the original. A mutated gene modifies the original state.

df <- data.frame(country = c("AU", "NZ", "JPN", "CHN", "USA")) %>% 
  amplify(soil = nest_in(country, 
                            "AU" ~ 10,
                            "NZ" ~ 8,
                               . ~ 5,
                           prefix = "sample",
                           leading0 = TRUE),
          rep = nest_in(soil, 
                          1:3 ~ 3, # first 3 samples have 3 technical rep
                            . ~ 2)) # remaining have two rep

tibble::as_tibble(df)
#> # A tibble: 81 x 3
#>    country soil     rep  
#>    <chr>   <chr>    <chr>
#>  1 AU      sample01 1    
#>  2 AU      sample01 2    
#>  3 AU      sample01 3    
#>  4 NZ      sample01 1    
#>  5 NZ      sample01 2    
#>  6 NZ      sample01 3    
#>  7 CHN     sample01 1    
#>  8 CHN     sample01 2    
#>  9 CHN     sample01 3    
#> 10 USA     sample01 1    
#> # … with 71 more rows
…
The semantics are less direct, however and chaining of nesting structure is cumbersome. For example, see the country example below.

data.frame(country = c("AU", "NZ", "JPN", "CHN", "USA")) %>% 
  mutate(soil = case_when(country=="AU" ~ list(sprintf("sample%.2d", 1:10)),
                          country=="NZ" ~ list(sprintf("sample%.2d", 1:8)),
                               TRUE ~ list(sprintf("sample%.2d", 1:5)))) %>% 
  unnest_longer(soil) %>% 
  mutate(rep = case_when(soil %in% c("sample01", "sample02", "sample03") ~ list(1:3),
                           TRUE ~ list(1:2))) %>% 
  unnest_longer(rep)
#> # A tibble: 81 x 3
#>    country soil       rep
#>    <chr>   <chr>    <int>
#>  1 AU      sample01     1
#>  2 AU      sample01     2
#>  3 AU      sample01     3
#>  4 AU      sample02     1
#>  5 AU      sample02     2
#>  6 AU      sample02     3
#>  7 AU      sample03     1
#>  8 AU      sample03     2
#>  9 AU      sample03     3
#> 10 AU      sample04     1
#> # … with 71 more rows
…
